{
	"page": 1,
	"total_results": 10000,
	"total_pages": 500,
	"results": [{
		"popularity": 4.568,
		"id": 315946,
		"video": false,
		"vote_count": 42,
		"vote_average": 6.1,
		"title": "Passage of Venus",
		"release_date": "1874-12-09",
		"original_language": "xx",
		"original_title": "Passage de Venus",
		"genre_ids": [99],
		"backdrop_path": "\/d5O93YRHzzFTYv7B8DreUFDYd8t.jpg",
		"adult": false,
		"overview": "Photo sequence of the rare transit of Venus over the face of the Sun, one of the first chronophotographic sequences.  In 1873, P.J.C. Janssen, or Pierre Jules César Janssen, invented the Photographic Revolver, which captured a series of images in a row. The device, automatic, produced images in a row without human intervention, being used to serve as photographic evidence of the passage of Venus before the Sun, in 1874.",
		"poster_path": "\/XWPDZzK7N2WQcejI8W96IxZEeP.jpg"
	}, {
		"popularity": 5.675,
		"id": 194079,
		"video": false,
		"vote_count": 74,
		"vote_average": 6.7,
		"title": "Sallie Gardner at a Gallop",
		"release_date": "1878-06-14",
		"original_language": "xx",
		"original_title": "Sallie Gardner at a Gallop",
		"genre_ids": [99, 28, 16],
		"backdrop_path": "\/sZY4QiduYnB07OeVYdCo9H3oL8b.jpg",
		"adult": false,
		"overview": "Sallie Gardner at a Gallop was one of the earliest silent films — a production experiment by the photographer Eadward Muybridge on June 15, 1878 that led to the development of motion pictures. The motion picture consists of 24 photographs in a fast-motion series that were shown on a zoopraxiscope.",
		"poster_path": "\/2E2x8HYXAJpgWbJk4LSpJ8BT8Xl.jpg"
	}]
}